{
  "operating_systems": [
    {
      "name": "ArchAssault -> BlackArch Linux",
      "from": "ArchAssault",
      "to": "BlackArch Linux"
    },
    {
      "name": "Backtrack -> Kali Linux",
      "from": "Backtrack",
      "to": "Kali Linux"
    }
  ]
}
